# The units used in this file are centimeters.
g default
v -0.144875 1.327217 5.615643
v -0.225104 1.327217 5.615643
v -0.184947 1.263259 5.639646
v -0.115018 0.498317 3.334585
v -0.254961 0.498317 3.334585
v -0.184915 0.386754 3.376453
v -1.716210 1.228193 1.624243
v 1.716210 1.228193 1.624243
v -1.716210 3.678229 1.112015
v 1.716210 3.678229 1.112015
v -1.716210 2.133089 1.875449
v -1.716210 2.949767 1.704707
v 1.716210 2.133089 1.875449
v 1.716210 2.949767 1.704707
v 1.130188 1.138104 3.838758
v -1.130188 1.138104 3.838758
v 1.130188 2.730153 3.411724
v -1.130188 2.730153 3.411724
v 1.130188 1.728059 3.917390
v 1.130188 2.258742 3.775045
v -1.130188 1.728059 3.917390
v -1.130188 2.258742 3.775045
v 0.285726 1.414839 0.404749
v 0.285726 3.565998 -3.374206
v 0.285726 1.414839 -3.032701
v 0.520617 2.737787 -3.135153
v 0.520617 2.092809 -3.058036
v 0.032995 3.515153 3.152853
v 0.000000 3.515153 3.096298
v -0.032924 3.515153 3.152838
v 0.069529 0.329857 3.184164
v 0.000000 0.329856 3.064987
v -0.069380 0.329857 3.184133
v 0.142825 0.332971 2.064063
v -0.142825 0.332971 2.064063
v 0.218003 0.548444 2.064063
v -0.218003 0.548444 2.064063
v 0.150329 0.558626 2.282825
v 0.187293 0.548444 2.049024
v -0.218003 0.428469 2.064063
v 0.218003 0.428469 2.064063
v 0.150329 0.428469 2.245930
v 0.099184 0.332971 2.131552
v -0.187292 0.548444 2.049024
v -0.187292 0.511783 2.049024
v 0.000000 0.593861 2.448822
v 0.187293 0.511783 2.049024
v 0.129151 0.558626 2.263513
v 0.129166 0.512317 2.259682
v -0.129133 0.512317 2.259658
v 0.000049 0.511783 2.392508
v 0.000000 0.428469 2.389971
v 0.000000 0.332971 2.233944
v 0.000000 0.609262 2.500657
v -0.129151 0.558626 2.263513
v -0.150329 0.558626 2.282825
v -0.150329 0.428469 2.245930
v -0.099184 0.332971 2.131552
v 0.150329 0.558626 1.214590
v 0.218003 0.548444 1.433352
v 0.150329 0.428469 1.251485
v 0.218003 0.428469 1.433352
v 0.099184 0.332971 1.365863
v 0.142825 0.332971 1.433351
v 0.000000 0.593861 1.048593
v 0.129151 0.558626 1.233902
v 0.187293 0.548444 1.448391
v 0.129166 0.512317 1.237733
v 0.187293 0.511783 1.448391
v 0.000049 0.511783 1.104907
v 0.000000 0.428469 1.107444
v 0.000000 0.332971 1.263471
v 0.000000 0.609262 0.996758
v -0.129133 0.512317 1.237757
v -0.129151 0.558626 1.233902
v -0.150329 0.558626 1.214590
v -0.150329 0.428469 1.251485
v -0.099184 0.332971 1.365863
v -0.187292 0.548444 1.448391
v -0.187292 0.511783 1.448391
v -0.218003 0.548444 1.433352
v -0.218003 0.428469 1.433352
v -0.142825 0.332971 1.433351
v 0.069529 4.023414 0.781846
v 0.000000 4.023414 0.662669
v -0.069380 4.023414 0.781814
v 0.069529 0.329856 0.781846
v 0.000000 0.329856 0.662669
v -0.069380 0.329856 0.781814
v 0.166114 4.023414 0.855793
v 0.010485 4.023414 0.589036
v -0.144812 4.023414 0.855723
v 0.166114 4.569926 0.855793
v 0.010485 4.569926 0.589036
v -0.144812 4.569926 0.855723
v -0.003589 4.569926 0.743962
v -0.029008 4.569926 0.700392
v -0.054373 4.569926 0.743950
v -0.003589 4.857774 0.743962
v -0.029008 4.857774 0.700391
v -0.054373 4.857774 0.743950
v -0.046858 3.372327 -1.539388
v -0.000000 3.372327 -1.619705
v 0.046758 3.372327 -1.539410
v -0.069529 0.749766 -1.519959
v -0.000000 0.749766 -1.639135
v 0.069380 0.749766 -1.519990
v -0.655150 -0.500000 2.718144
v 0.655150 -0.500000 2.718144
v -1.000000 0.500000 2.718144
v 1.000000 0.500000 2.718144
v -1.000000 0.500000 -2.368548
v 1.000000 0.500000 -2.368548
v -0.655150 -0.500000 -2.368548
v 0.655150 -0.500000 -2.368548
v -1.000000 0.500000 -0.417786
v 1.000000 0.500000 -0.417786
v -1.000000 0.936620 -0.528845
v 1.000000 0.936620 -0.528845
v 1.000000 0.936620 -2.595798
v -1.000000 0.936620 -2.595798
v 1.000000 0.718310 -2.595798
v -1.000000 0.718310 -2.595798
v -1.000000 -0.166667 2.718144
v -1.000000 0.166667 2.718144
v 1.000000 -0.166667 2.718144
v 1.000000 0.166667 2.718144
v -1.000000 0.166667 -2.368548
v -1.000000 -0.166667 -2.368548
v 1.000000 0.166667 -2.368548
v 1.000000 -0.166667 -2.368548
v -0.859127 0.500000 -0.417786
v -0.859127 0.936620 -0.528845
v 0.859127 0.500000 -0.417786
v 0.859127 0.936620 -0.528845
v -0.859127 0.936620 -2.398426
v 0.859127 0.936620 -2.398426
v -0.859127 0.500000 2.660114
v 0.859127 0.500000 2.660114
v -0.859127 0.329856 2.660114
v 0.859127 0.329856 2.660114
v -0.859127 0.751986 -2.398426
v 0.859127 0.751986 -2.398426
v -0.859127 0.329856 -0.627793
v 0.859127 0.329856 -0.627793
v 0.859127 0.752299 -0.627571
v -0.859127 0.751678 -0.627571
v 0.054596 -0.500000 3.281119
v 0.068713 0.166667 4.176245
v 0.068713 -0.166667 3.883164
v 0.068713 0.742586 4.310253
v -0.054596 -0.500000 3.281119
v -0.068713 0.166667 4.176245
v -0.068713 -0.166667 3.883164
v -0.068713 0.742586 4.310253
v 0.000000 0.710775 4.202769
v 0.000223 0.329856 4.158280
v 0.000000 1.190948 4.251798
v 0.054596 -0.500000 3.373642
v 0.068713 -0.166667 3.975688
v -0.068713 -0.166667 3.975688
v -0.054596 -0.500000 3.373642
v 0.068713 0.166667 4.268768
v -0.068713 0.166667 4.268768
v 0.068713 0.742586 4.402777
v -0.068713 0.742586 4.402777
v 0.068713 1.190948 4.402777
v -0.068713 1.190948 4.402777
v 1.000000 0.609155 -2.420737
v -1.000000 0.609155 -2.420737
v -1.000000 0.645540 -0.528845
v 1.000000 0.645540 -0.528845
v 0.859127 0.645540 -0.528845
v -0.859127 0.645540 -0.528845
v -0.592345 0.366192 3.472863
v -0.312270 0.329856 3.893048
v 0.254780 -0.500000 3.161500
v 0.454965 -0.500000 2.978555
v 0.379142 0.166667 3.914026
v 0.689571 0.166667 3.517585
v 0.379142 -0.166667 3.718639
v 0.689571 -0.166667 3.419892
v 0.379142 0.626927 4.003365
v 0.689571 0.547254 3.562255
v 0.312436 0.611579 3.922800
v 0.592429 0.547254 3.487739
v -0.454965 -0.500000 2.978555
v -0.254780 -0.500000 3.161501
v -0.689571 0.166667 3.517585
v -0.379142 0.166667 3.914026
v -0.689571 -0.166667 3.419891
v -0.379142 -0.166667 3.718639
v -0.689571 0.547254 3.562254
v -0.379142 0.626927 4.003366
v -0.592429 0.547254 3.487739
v -0.312430 0.611579 3.922800
v 0.312560 0.329856 3.893234
v 0.592493 0.366192 3.472956
v -0.000000 0.718310 -2.595798
v -0.075912 0.936620 -2.595798
v 0.075912 0.936620 -2.595798
v 0.075965 0.874633 -2.595798
v -0.075965 0.874633 -2.595798
v -0.050286 0.848211 -3.959433
v 0.050286 0.848211 -3.959433
v -0.000000 0.744732 -3.959433
v 0.041149 2.864816 3.910242
v 0.041149 3.062815 3.883656
v 0.041149 3.027281 3.161240
v 0.041149 3.519041 3.161240
v 0.153325 2.973126 3.410907
v 0.153325 3.366966 3.402045
v 0.027376 2.891894 3.680574
v 0.027376 3.138853 3.658420
vt 0.160889 0.957294
vt 0.177014 0.957479
vt 0.166958 0.740833
vt 0.175877 0.740939
vt 0.204826 0.957915
vt 0.210793 0.741312
vt 0.191046 0.957640
vt 0.193092 0.740902
vt 0.168690 0.973593
vt 0.469299 0.540949
vt 0.981540 0.540949
vt 0.981540 0.682034
vt 0.469299 0.682034
vt 0.981540 0.809365
vt 0.469299 0.809365
vt 0.981540 0.922942
vt 0.469299 0.922942
vt 0.979553 0.809072
vt 0.467311 0.809072
vt 0.467311 0.921605
vt 0.979553 0.921605
vt 0.979553 0.682390
vt 0.467311 0.682390
vt 0.979553 0.541559
vt 0.467311 0.541559
vt 0.402929 0.608711
vt 0.028464 0.527228
vt 0.400190 0.527228
vt 0.437120 0.785768
vt 0.411269 0.686229
vt 0.127665 0.940698
vt 0.118655 0.961966
vt 0.109685 0.940695
vt 0.127642 0.680786
vt 0.145051 0.680786
vt 0.145062 0.940697
vt 0.092333 0.680786
vt 0.109718 0.680786
vt 0.092345 0.940697
vt 0.917329 0.341029
vt 0.944937 0.341029
vt 0.950538 0.365305
vt 0.917329 0.363406
vt 0.917329 0.323217
vt 0.927574 0.323217
vt 0.946250 0.401970
vt 0.912292 0.389953
vt 0.914676 0.383614
vt 0.949310 0.397600
vt 0.950151 0.282234
vt 0.918480 0.282055
vt 0.918480 0.294336
vt 0.950727 0.297747
vt 0.943117 0.323217
vt 0.966803 0.341029
vt 0.983605 0.374750
vt 0.978587 0.309551
vt 0.970121 0.282055
vt 0.950727 0.297747
vt 0.950148 0.282234
vt 0.983788 0.428647
vt 0.949281 0.459662
vt 0.946225 0.455289
vt 0.975580 0.428643
vt 0.944937 0.341029
vt 0.950538 0.365305
vt 0.927574 0.323217
vt 0.918480 0.294336
vt 0.918480 0.282055
vt 0.914635 0.473615
vt 0.912256 0.467275
vt 0.917329 0.341029
vt 0.917329 0.363406
vt 0.917329 0.323217
vt 0.821584 0.363406
vt 0.821584 0.341029
vt 0.821584 0.323217
vt 0.821584 0.341029
vt 0.821584 0.323217
vt 0.821584 0.363406
vt 0.817148 0.467231
vt 0.814764 0.473570
vt 0.828178 0.282055
vt 0.828178 0.294336
vt 0.828178 0.294336
vt 0.828178 0.282055
vt 0.814805 0.383569
vt 0.817184 0.389909
vt 0.788375 0.365305
vt 0.793976 0.341029
vt 0.811339 0.323217
vt 0.768070 0.309551
vt 0.776536 0.282055
vt 0.796510 0.282234
vt 0.795930 0.297747
vt 0.783215 0.401895
vt 0.780159 0.397522
vt 0.796506 0.282234
vt 0.795930 0.297747
vt 0.795795 0.323217
vt 0.772110 0.341029
vt 0.793976 0.341029
vt 0.811339 0.323217
vt 0.755307 0.374750
vt 0.788375 0.365305
vt 0.745651 0.428538
vt 0.753859 0.428542
vt 0.780130 0.459584
vt 0.783190 0.455214
vt 0.817850 0.455642
vt 0.785717 0.447170
vt 0.765447 0.428343
vt 0.785705 0.409516
vt 0.817838 0.401035
vt 0.909460 0.401016
vt 0.941596 0.409482
vt 0.961862 0.428301
vt 0.941601 0.447137
vt 0.909472 0.455622
vt 0.051748 0.971143
vt 0.047387 0.981362
vt 0.042992 0.971247
vt 0.060535 0.629499
vt 0.080205 0.629499
vt 0.080205 0.899529
vt 0.060535 0.899529
vt 0.031495 0.629499
vt 0.047255 0.629499
vt 0.047255 0.899529
vt 0.031495 0.899529
vt 0.078847 0.908266
vt 0.061163 0.908266
vt 0.047800 0.908266
vt 0.030137 0.908266
vt 0.078847 0.949513
vt 0.061163 0.949513
vt 0.047800 0.949513
vt 0.030137 0.949513
vt 0.058710 0.956894
vt 0.051792 0.956888
vt 0.043053 0.956801
vt 0.038375 0.956801
vt 0.058642 0.971068
vt 0.038375 0.971238
vt 0.224364 0.957871
vt 0.231001 0.970344
vt 0.237615 0.957870
vt 0.266616 0.784798
vt 0.251625 0.784798
vt 0.251621 0.957870
vt 0.266617 0.957870
vt 0.237739 0.784798
vt 0.224236 0.784798
vt 0.947646 0.030687
vt 0.808342 0.030687
vt 0.771679 0.080023
vt 0.771679 0.129358
vt 0.771679 0.178694
vt 0.984308 0.178694
vt 0.984308 0.129358
vt 0.984308 0.080023
vt 0.197830 0.033315
vt 0.197830 0.033315
vt 0.740688 0.033315
vt 0.740688 0.033315
vt 0.197830 0.130693
vt 0.740688 0.130693
vt 0.740688 0.179383
vt 0.532500 0.179383
vt 0.197830 0.179383
vt 0.740688 0.130693
vt 0.197830 0.130693
vt 0.197830 0.179383
vt 0.532500 0.179383
vt 0.740688 0.179383
vt 0.746257 0.195326
vt 0.764940 0.211270
vt 0.764940 0.243158
vt 0.544352 0.243158
vt 0.544352 0.200641
vt 0.771679 0.211005
vt 0.771679 0.243317
vt 0.869923 0.243317
vt 0.869918 0.234142
vt 0.877994 0.211005
vt 0.544352 0.200641
vt 0.544352 0.243158
vt 0.764940 0.243158
vt 0.764940 0.211270
vt 0.746257 0.195326
vt 0.984308 0.194850
vt 0.771679 0.194850
vt 0.984308 0.211005
vt 0.107745 0.186285
vt 0.112512 0.130693
vt 0.501792 0.281296
vt 0.189440 0.281033
vt 0.183564 0.265482
vt 0.501806 0.265751
vt 0.513076 0.265760
vt 0.513063 0.281306
vt 0.702792 0.281466
vt 0.722835 0.265938
vt 0.722749 0.367913
vt 0.722735 0.384666
vt 0.722648 0.486641
vt 0.702632 0.471079
vt 0.740688 0.082004
vt 0.197830 0.082004
vt 0.197830 0.082004
vt 0.740688 0.082004
vt 0.122938 0.082004
vt 0.170038 0.033315
vt 0.538625 0.486464
vt 0.538638 0.470918
vt 0.501619 0.486455
vt 0.501632 0.470909
vt 0.512903 0.470918
vt 0.512890 0.486464
vt 0.086872 0.225098
vt 0.085227 0.252139
vt 0.069755 0.261660
vt 0.072213 0.225098
vt 0.336718 0.224727
vt 0.155010 0.225098
vt 0.155010 0.241429
vt 0.325112 0.241429
vt 0.336718 0.224727
vt 0.356375 0.233250
vt 0.350919 0.251001
vt 0.331250 0.244166
vt 0.371599 0.206869
vt 0.522102 0.206869
vt 0.522102 0.225381
vt 0.371599 0.225381
vt 0.483458 0.298538
vt 0.540054 0.298538
vt 0.540064 0.456569
vt 0.483467 0.456569
vt 0.356375 0.233310
vt 0.350919 0.251001
vt 0.454242 0.251001
vt 0.454242 0.233279
vt 0.684187 0.298529
vt 0.684197 0.456560
vt 0.105426 0.310392
vt 0.097873 0.299666
vt 0.183378 0.486186
vt 0.189280 0.470645
vt 0.061191 0.410208
vt 0.053009 0.417563
vt 0.021894 0.383280
vt 0.032808 0.375706
vt 0.060669 0.197922
vt 0.070204 0.130693
vt 0.042219 0.130693
vt 0.027918 0.214816
vt 0.091056 0.082004
vt 0.073497 0.082004
vt 0.150514 0.033315
vt 0.137748 0.033315
vt 0.110088 0.228586
vt 0.109271 0.245965
vt 0.034156 0.280307
vt 0.039389 0.210170
vt 0.018044 0.214816
vt 0.018044 0.280307
vt 0.018044 0.280307
vt 0.127874 0.033315
vt 0.063623 0.082004
vt 0.063623 0.082004
vt 0.127874 0.033315
vt 0.032345 0.130693
vt 0.032345 0.130693
vt 0.018044 0.214816
vt 0.137748 0.033315
vt 0.073497 0.082004
vt 0.042219 0.130693
vt 0.027918 0.214816
vt 0.454242 0.233279
vt 0.454242 0.251001
vt 0.538799 0.281306
vt 0.538812 0.265760
vt 0.086861 0.225098
vt 0.085227 0.252139
vt 0.061249 0.341253
vt 0.053079 0.333884
vt 0.060669 0.197922
vt 0.070204 0.130693
vt 0.091056 0.082004
vt 0.150514 0.033315
vt 0.021907 0.368114
vt 0.110093 0.228586
vt 0.109271 0.245965
vt 0.105316 0.441144
vt 0.097745 0.451857
vt 0.107745 0.186285
vt 0.112512 0.130693
vt 0.122938 0.082004
vt 0.170038 0.033315
vt 0.155010 0.241429
vt 0.155010 0.225098
vt 0.886070 0.234142
vt 0.886064 0.243317
vt 0.984308 0.243317
vt -0.720659 0.967344
vt -0.734822 0.909055
vt -0.706497 0.909055
vt -0.850562 0.716087
vt -0.762506 0.716087
vt -0.777389 0.908118
vt -0.835679 0.908118
vt -0.760908 0.716087
vt -0.718117 0.716087
vt -0.725349 0.908118
vt -0.753675 0.908118
vt -0.852206 0.908118
vt -0.940261 0.908118
vt -0.925378 0.716087
vt -0.867089 0.716087
vt 0.183197 0.456585
vt 0.117044 0.432053
vt 0.082843 0.406296
vt 0.061254 0.377556
vt 0.082825 0.348829
vt 0.117030 0.323081
vt 0.183187 0.298554
vt 0.331250 0.244166
vt 0.325112 0.241429
vt 0.438057 0.989030
vt 0.378922 0.975483
vt 0.363506 0.923116
vt 0.449971 0.937599
vt 0.449358 0.875285
vt 0.358800 0.857994
vt 0.346342 0.799249
vt 0.449616 0.818413
vn 0.000004 0.351363 0.936239
vn 0.000004 0.351363 0.936239
vn 0.000004 0.351363 0.936239
vn 0.000463 -0.932508 0.361148
vn 0.867653 0.470812 -0.159729
vn 0.867653 0.470812 -0.159729
vn 0.000463 -0.932508 0.361148
vn -0.867883 0.470436 -0.159589
vn -0.867883 0.470436 -0.159589
vn -0.000001 -0.351361 -0.936240
vn -0.000001 -0.351361 -0.936240
vn -0.000001 -0.351361 -0.936240
vn 0.000000 -0.267492 0.963560
vn 0.000000 -0.267492 0.963560
vn 0.000000 -0.032339 0.999477
vn 0.000000 -0.032339 0.999477
vn -0.000000 0.430048 0.902806
vn -0.000000 0.430048 0.902806
vn -0.000000 0.631116 0.775688
vn -0.000000 0.631116 0.775688
vn -0.000000 0.443359 0.896344
vn -0.000000 0.610447 0.792057
vn -0.000000 0.610447 0.792057
vn -0.000000 0.443359 0.896344
vn 0.000000 0.064733 0.997903
vn 0.000000 0.064733 0.997903
vn 0.000000 -0.132116 0.991234
vn 0.000000 -0.132116 0.991234
vn -0.986164 0.161996 -0.035178
vn -0.944896 0.327371 0.000000
vn -0.996260 0.001026 -0.086400
vn -0.931494 -0.316125 -0.179953
vn -0.978244 -0.164511 -0.126394
vn 0.000000 1.000000 0.000005
vn 0.000000 1.000000 0.000005
vn 0.000000 1.000000 0.000005
vn 0.867020 0.014840 0.498052
vn -0.000408 0.009829 -0.999952
vn -0.000408 0.009829 -0.999952
vn 0.867020 0.014840 0.498052
vn -0.866930 0.014817 0.498209
vn -0.866930 0.014817 0.498209
vn 0.920352 -0.352410 -0.169588
vn 0.751392 -0.471895 -0.461221
vn 0.852629 -0.179031 -0.490889
vn 0.986399 -0.023985 -0.162607
vn 0.751048 -0.641178 -0.157537
vn 0.580653 -0.715542 -0.388384
vn 0.011366 0.992032 0.125471
vn 0.013039 0.999721 0.019695
vn 0.013039 0.999721 0.019695
vn 0.011366 0.992032 0.125471
vn -0.874883 0.156742 0.458271
vn -0.991068 0.006069 0.133216
vn -0.991068 0.006069 0.133216
vn -0.874883 0.156742 0.458271
vn 0.450866 -0.767025 -0.456500
vn 0.606162 -0.556481 -0.568240
vn 0.712400 -0.300900 -0.633992
vn -0.726994 0.291002 0.621930
vn -0.726994 0.291002 0.621930
vn 0.726702 0.291831 0.621883
vn 0.874743 0.157412 0.458308
vn 0.874743 0.157412 0.458308
vn 0.726702 0.291831 0.621883
vn 0.003427 0.977566 0.210601
vn -0.011365 0.992032 0.125472
vn -0.011365 0.992032 0.125472
vn 0.003427 0.977566 0.210601
vn -0.606162 -0.556481 -0.568240
vn -0.751392 -0.471895 -0.461221
vn -0.852629 -0.179031 -0.490889
vn -0.712400 -0.300900 -0.633992
vn -0.450866 -0.767025 -0.456499
vn -0.580653 -0.715541 -0.388384
vn 0.991061 0.006300 0.133264
vn 0.991061 0.006300 0.133264
vn -0.013039 0.999721 0.019696
vn -0.013039 0.999721 0.019696
vn -0.920352 -0.352410 -0.169588
vn -0.986399 -0.023985 -0.162607
vn -0.751048 -0.641178 -0.157537
vn 0.986399 -0.023985 0.162607
vn 0.920352 -0.352410 0.169588
vn 0.751048 -0.641178 0.157537
vn -0.920351 -0.352410 0.169588
vn -0.751048 -0.641178 0.157537
vn -0.986399 -0.023985 0.162607
vn 0.000000 1.000000 0.000000
vn 0.000000 1.000000 0.000000
vn 1.000000 -0.000000 0.000000
vn 1.000000 -0.000000 0.000000
vn -1.000000 -0.000000 0.000000
vn -1.000000 -0.000000 0.000000
vn 0.000000 1.000000 -0.000000
vn 0.000000 1.000000 -0.000000
vn 0.852629 -0.179032 0.490889
vn 0.751392 -0.471896 0.461221
vn 0.580653 -0.715542 0.388383
vn 0.726702 0.291830 -0.621884
vn 0.726702 0.291830 -0.621884
vn 0.726702 0.291830 -0.621884
vn 0.726702 0.291830 -0.621884
vn 0.026070 0.998884 -0.039379
vn 0.026070 0.998884 -0.039379
vn 0.026070 0.998884 -0.039379
vn 0.026070 0.998884 -0.039379
vn -0.964433 0.012029 -0.264053
vn -0.964433 0.012029 -0.264053
vn -0.964433 0.012029 -0.264053
vn -0.964433 0.012029 -0.264053
vn -0.450865 -0.767026 0.456499
vn -0.606161 -0.556482 0.568240
vn -0.751392 -0.471896 0.461221
vn -0.580653 -0.715542 0.388383
vn -0.712399 -0.300901 0.633992
vn -0.852628 -0.179032 0.490889
vn -0.726995 0.291001 -0.621930
vn -0.726995 0.291001 -0.621930
vn -0.726995 0.291001 -0.621930
vn -0.726995 0.291001 -0.621930
vn -0.003425 0.977566 -0.210600
vn -0.003425 0.977566 -0.210600
vn -0.003425 0.977566 -0.210600
vn -0.003425 0.977566 -0.210600
vn 0.606161 -0.556482 0.568240
vn 0.712400 -0.300901 0.633992
vn 0.450866 -0.767026 0.456499
vn 0.964402 0.012487 -0.264145
vn 0.964402 0.012487 -0.264145
vn 0.964402 0.012487 -0.264145
vn 0.964402 0.012487 -0.264145
vn -0.026070 0.998884 -0.039379
vn -0.026070 0.998884 -0.039379
vn -0.026070 0.998884 -0.039379
vn -0.026070 0.998884 -0.039379
vn -0.000000 1.000000 0.000000
vn -0.000000 1.000000 0.000000
vn -0.000000 1.000000 0.000000
vn -0.000000 1.000000 0.000000
vn -0.000000 1.000000 0.000000
vn -0.000000 1.000000 0.000000
vn -0.000000 1.000000 0.000000
vn -0.000000 1.000000 0.000000
vn -0.000000 1.000000 0.000000
vn -0.000000 1.000000 0.000000
vn 0.003426 0.977566 -0.210601
vn 0.003426 0.977566 -0.210601
vn 0.003426 0.977566 -0.210601
vn 0.003426 0.977566 -0.210601
vn -0.003426 0.977566 0.210600
vn -0.003426 0.977566 0.210600
vn 0.000000 1.000000 -0.000002
vn 0.000000 1.000000 -0.000002
vn 0.000000 1.000000 -0.000002
vn 0.867100 -0.000000 0.498134
vn -0.000408 0.000000 -1.000000
vn -0.000408 0.000000 -1.000000
vn 0.867100 -0.000000 0.498134
vn -0.867010 -0.000000 0.498291
vn -0.867010 -0.000000 0.498291
vn 0.000000 -1.000000 -0.000000
vn 0.000000 -1.000000 0.000003
vn 0.000000 -1.000000 0.000003
vn 0.000000 -1.000000 -0.000000
vn 0.000000 -1.000000 0.000002
vn 0.000000 -1.000000 0.000002
vn 0.867100 0.000000 0.498134
vn -0.000407 -0.000000 -1.000000
vn -0.000407 -0.000000 -1.000000
vn 0.867100 0.000000 0.498134
vn -0.867010 0.000000 0.498291
vn -0.867010 0.000000 0.498291
vn 0.000000 1.000000 0.000000
vn 0.000000 1.000000 0.000004
vn 0.000000 1.000000 0.000004
vn 0.000000 1.000000 0.000000
vn 0.000000 1.000000 0.000002
vn 0.000000 1.000000 0.000002
vn 0.863751 -0.000001 -0.503919
vn 0.863751 -0.000001 -0.503919
vn 0.863751 -0.000001 -0.503919
vn 0.863751 -0.000001 -0.503919
vn -0.864160 -0.000001 -0.503217
vn -0.864160 -0.000001 -0.503217
vn -0.864160 -0.000001 -0.503217
vn -0.864160 -0.000001 -0.503217
vn -0.000233 0.000002 1.000000
vn -0.000233 0.000002 1.000000
vn -0.000233 0.000002 1.000000
vn -0.000233 0.000002 1.000000
vn 0.000000 1.000000 0.000002
vn 0.000000 1.000000 0.000002
vn 0.000000 1.000000 0.000002
vn -0.867055 0.011186 0.498087
vn -0.867055 0.011186 0.498087
vn 0.000408 0.007409 -0.999972
vn 0.000408 0.007409 -0.999972
vn 0.866964 0.011168 0.498245
vn 0.866964 0.011168 0.498245
vn 0.000000 0.000000 -1.000000
vn 0.000000 0.000000 -1.000000
vn 0.000000 0.000000 -1.000000
vn 0.000000 0.000000 -1.000000
vn 0.000000 -0.221149 -0.975240
vn 0.000000 -0.221149 -0.975240
vn 0.000000 0.000000 -1.000000
vn 0.000000 0.000000 -1.000000
vn 0.000000 -1.000000 0.000000
vn 0.000000 -1.000000 0.000000
vn 0.000000 -1.000000 0.000000
vn 0.000000 -1.000000 0.000000
vn 0.982115 -0.019872 0.187232
vn 1.000000 0.000000 0.000000
vn 1.000000 0.000000 0.000000
vn 1.000000 0.000000 0.000000
vn 0.983626 -0.011254 0.179871
vn -1.000000 0.000000 0.000000
vn -0.982115 -0.019872 0.187232
vn -0.983626 -0.011254 0.179871
vn -1.000000 0.000000 0.000000
vn -1.000000 0.000000 0.000000
vn 1.000000 -0.000000 0.000000
vn 1.000000 -0.000000 0.000000
vn 1.000000 -0.000000 0.000000
vn 1.000000 -0.000000 0.000000
vn 1.000000 -0.000000 0.000000
vn -0.000000 0.000000 -1.000000
vn -0.000000 0.000000 -1.000000
vn -0.000000 0.000000 -1.000000
vn -0.000000 0.000000 -1.000000
vn -0.000000 0.000000 -1.000000
vn -1.000000 0.000000 0.000000
vn -1.000000 0.000000 0.000000
vn -1.000000 0.000000 0.000000
vn -1.000000 0.000000 0.000000
vn -1.000000 0.000000 0.000000
vn -0.000000 -0.666588 -0.745426
vn -0.000000 -0.666588 -0.745426
vn 0.000000 -0.848561 -0.529097
vn 0.000000 -0.848561 -0.529097
vn 0.000000 -0.848561 -0.529097
vn 0.874501 -0.059406 0.481371
vn 0.857076 -0.115631 0.502046
vn 0.000000 0.896280 0.443488
vn 0.000000 1.000000 0.000000
vn 0.000000 1.000000 0.000000
vn 0.000000 0.896280 0.443488
vn -0.000000 0.320172 0.947359
vn -0.000000 0.320172 0.947359
vn 0.000000 1.000000 0.000000
vn 0.000000 1.000000 0.000000
vn 0.000000 1.000000 0.000000
vn 0.000000 1.000000 0.000000
vn 0.000000 1.000000 0.000000
vn 0.000000 1.000000 0.000000
vn -0.920597 -0.390513 0.000000
vn -0.888428 -0.416311 0.193340
vn -0.694999 -0.719011 0.000000
vn -0.657008 -0.736350 0.161648
vn 0.888428 -0.416311 0.193340
vn 0.920597 -0.390513 0.000000
vn 0.657008 -0.736350 0.161648
vn 0.694999 -0.719011 0.000000
vn 0.713472 -0.514634 0.475510
vn 0.498222 -0.785130 0.367895
vn 0.000000 1.000000 -0.000000
vn 0.000000 1.000000 -0.000000
vn 0.000000 1.000000 -0.000000
vn 0.000000 1.000000 -0.000000
vn -0.000000 0.896280 0.443488
vn -0.000000 0.896280 0.443488
vn 0.000000 0.320172 0.947359
vn 0.000000 0.320172 0.947359
vn 0.647298 0.085239 -0.757456
vn 0.647298 0.085239 -0.757456
vn 0.647298 0.085239 -0.757456
vn 0.647298 0.085239 -0.757456
vn -1.000000 0.000000 0.000000
vn -1.000000 0.000000 0.000000
vn -1.000000 0.000000 0.000000
vn -1.000000 0.000000 0.000000
vn 1.000000 0.000000 0.000000
vn 1.000000 0.000000 0.000000
vn 1.000000 0.000000 0.000000
vn 1.000000 0.000000 0.000000
vn 0.000000 0.000000 1.000000
vn 0.000000 0.000000 1.000000
vn 0.000000 0.000000 1.000000
vn 0.000000 0.000000 1.000000
vn 0.000000 -0.000528 1.000000
vn 0.000000 -0.000528 1.000000
vn 0.000000 -0.000528 1.000000
vn 0.000000 -0.000528 1.000000
vn -1.000000 0.000000 0.000000
vn -1.000000 0.000000 0.000000
vn -1.000000 0.000000 0.000000
vn -1.000000 0.000000 0.000000
vn -0.000181 1.000000 -0.000002
vn -0.000181 1.000000 -0.000002
vn -0.000181 1.000000 -0.000002
vn -0.000181 1.000000 -0.000002
vn 0.026367 0.998530 -0.047347
vn 0.026367 0.998530 -0.047347
vn 0.026367 0.998530 -0.047347
vn 0.026367 0.998530 -0.047347
vn 0.000000 1.000000 0.000000
vn 0.000000 1.000000 0.000000
vn -0.061935 0.956669 -0.284513
vn -0.061935 0.956669 -0.284513
vn -0.061935 0.956669 -0.284513
vn -0.061935 0.956669 -0.284513
vn -0.727156 -0.128444 0.674349
vn -0.676030 -0.269053 0.685998
vn -0.579195 -0.345262 0.738463
vn -0.650646 -0.160009 0.742332
vn -0.485512 -0.651312 0.583156
vn -0.381012 -0.704040 0.599297
vn -0.322496 -0.840073 0.436204
vn -0.255373 -0.850990 0.458912
vn -0.950732 0.012863 -0.309747
vn -0.950732 0.012863 -0.309747
vn -0.950732 0.012863 -0.309747
vn -0.950732 0.012863 -0.309747
vn -0.926764 0.056611 -0.371353
vn -0.926764 0.056611 -0.371353
vn -0.981520 0.028839 -0.189172
vn -0.981520 0.028839 -0.189172
vn -0.926764 0.056611 -0.371353
vn 0.000000 1.000000 -0.000000
vn 0.000000 1.000000 -0.000000
vn 0.000000 1.000000 -0.000000
vn 0.000002 -0.874857 0.484381
vn 0.000002 -0.779072 0.626934
vn 0.000002 -0.779072 0.626934
vn 0.000002 -0.874857 0.484381
vn 0.000001 -0.457270 0.889328
vn 0.000001 -0.457270 0.889328
vn -0.000000 -0.114060 0.993474
vn -0.000000 -0.114060 0.993474
vn 0.000000 0.000000 1.000000
vn 0.000000 0.000000 1.000000
vn 0.999104 -0.042314 0.000000
vn 0.999776 -0.021162 0.000000
vn 0.999776 -0.021162 0.000000
vn 0.999104 -0.042314 0.000000
vn -0.999776 -0.021162 0.000000
vn -0.999104 -0.042314 0.000000
vn -0.999104 -0.042314 0.000000
vn -0.999776 -0.021162 0.000000
vn 0.000000 -1.000000 -0.000000
vn 0.000000 -1.000000 -0.000000
vn 0.000000 -1.000000 -0.000000
vn 0.000000 -1.000000 -0.000000
vn 1.000000 -0.000000 0.000000
vn 1.000000 -0.000000 0.000000
vn -1.000000 0.000000 0.000000
vn -1.000000 0.000000 0.000000
vn 0.981520 0.028839 -0.189172
vn 0.981520 0.028839 -0.189172
vn 0.926764 0.056611 -0.371353
vn 0.926764 0.056611 -0.371353
vn 0.926764 0.056611 -0.371353
vn 1.000000 -0.000000 0.000000
vn 1.000000 -0.000000 0.000000
vn 1.000000 -0.000000 0.000000
vn 1.000000 -0.000000 0.000000
vn -0.000000 0.000000 1.000000
vn -0.000000 0.000000 1.000000
vn 0.000000 0.000000 1.000000
vn 0.000000 0.000000 1.000000
vn -0.834747 0.052190 -0.548155
vn -0.834747 0.052190 -0.548155
vn -0.834747 0.052190 -0.548155
vn -0.834747 0.052190 -0.548155
vn 0.037398 0.989799 -0.137471
vn 0.037398 0.989799 -0.137471
vn 0.037398 0.989799 -0.137471
vn 0.037398 0.989799 -0.137471
vn 0.727156 -0.128444 0.674349
vn 0.676030 -0.269053 0.685998
vn 0.485512 -0.651312 0.583156
vn 0.322495 -0.840073 0.436204
vn -0.647393 0.084315 -0.757478
vn -0.647393 0.084315 -0.757478
vn -0.647393 0.084315 -0.757478
vn -0.647393 0.084315 -0.757478
vn 0.061936 0.956670 -0.284512
vn 0.061936 0.956670 -0.284512
vn 0.061936 0.956670 -0.284512
vn 0.061936 0.956670 -0.284512
vn 0.650647 -0.160009 0.742331
vn 0.579195 -0.345262 0.738462
vn 0.381012 -0.704041 0.599297
vn 0.255372 -0.850990 0.458912
vn 0.834587 0.053316 -0.548290
vn 0.834587 0.053316 -0.548290
vn 0.834587 0.053316 -0.548290
vn 0.834587 0.053316 -0.548290
vn -0.037397 0.989799 -0.137472
vn -0.037397 0.989799 -0.137472
vn -0.037397 0.989799 -0.137472
vn -0.037397 0.989799 -0.137472
vn -0.874502 -0.059406 0.481371
vn -0.857076 -0.115631 0.502046
vn -0.713472 -0.514634 0.475509
vn -0.498222 -0.785130 0.367894
vn 0.950688 0.013353 -0.309861
vn 0.950688 0.013353 -0.309861
vn 0.950688 0.013353 -0.309861
vn 0.950688 0.013353 -0.309861
vn -0.026367 0.998530 -0.047347
vn -0.026367 0.998530 -0.047347
vn -0.026367 0.998530 -0.047347
vn -0.026367 0.998530 -0.047347
vn -0.000000 0.000000 -1.000000
vn -0.000000 0.000000 -1.000000
vn -0.000000 0.000000 -1.000000
vn -0.000000 0.000000 -1.000000
vn -0.000000 0.000000 -1.000000
vn 0.000001 0.000000 -1.000000
vn 0.000001 0.000000 -1.000000
vn 0.000001 0.000000 -1.000000
vn 0.000001 0.000000 -1.000000
vn 0.000001 0.000000 -1.000000
vn 0.000001 0.000000 -1.000000
vn 0.000001 0.000000 -1.000000
vn 0.000000 -0.999812 -0.019372
vn -0.847439 0.530245 -0.026232
vn -0.847439 0.530245 -0.026232
vn 0.000000 -0.999812 -0.019372
vn 0.847439 0.530245 -0.026232
vn 0.847439 0.530245 -0.026232
vn 0.000000 -1.000000 -0.000000
vn 0.000000 -1.000000 -0.000000
vn 0.000000 -1.000000 -0.000000
vn 0.000000 -1.000000 -0.000000
vn 0.000000 -1.000000 -0.000000
vn 0.000000 -1.000000 -0.000000
vn 0.000000 1.000000 0.000000
vn 0.000000 1.000000 0.000000
vn 0.000000 1.000000 0.000000
vn 0.000000 1.000000 0.000000
vn -0.000000 0.999996 -0.002724
vn -0.000000 0.999996 -0.002724
vn -0.000000 0.999996 -0.002724
vn -0.000000 0.999996 -0.002724
vn -0.000000 0.999996 -0.002724
vn -0.000000 0.999996 -0.002724
vn -0.000000 0.999996 -0.002724
vn -0.000000 0.999996 -0.002724
vn -0.000000 0.999996 -0.002724
vn -1.000000 -0.000000 0.000000
vn -1.000000 -0.000000 0.000000
vn -1.000000 -0.000000 0.000000
vn -1.000000 -0.000000 0.000000
vn 1.000000 -0.000000 0.000000
vn 1.000000 -0.000000 0.000000
vn 1.000000 -0.000000 0.000000
vn -1.000000 -0.000000 0.000000
vn -1.000000 -0.000000 0.000000
vn -1.000000 -0.000000 0.000000
vn 1.000000 0.000000 0.000000
vn 1.000000 0.000000 0.000000
vn 1.000000 0.000000 0.000000
vn 1.000000 0.000000 0.000000
vn -0.998055 0.006788 0.061972
vn -0.998055 0.006788 0.061972
vn -0.980447 -0.007557 -0.196640
vn -0.980447 -0.007557 -0.196640
vn -0.999862 -0.009535 -0.013613
vn -0.999862 -0.009535 -0.013613
vn -0.908705 0.004177 0.417418
vn -0.908705 0.004177 0.417418
s off
g PirateShip
usemtl lambert3SG
f 3/9/1 1/1/2 2/2/3
s 2
f 6/8/4 4/6/5 1/5/6 3/7/7
f 4/3/5 5/4/8 2/2/9 1/1/6
f 5/4/8 6/8/4 3/7/7 2/2/9
s off
f 4/6/10 6/8/11 5/4/12
s 4
f 7/10/13 8/11/14 13/12/15 11/13/16
f 11/13/16 13/12/15 14/14/17 12/15/18
f 12/15/18 14/14/17 10/16/19 9/17/20
s 5
f 20/18/21 17/21/22 18/20/23 22/19/24
f 19/22/25 20/18/21 22/19/24 21/23/26
f 15/24/27 19/22/25 21/23/26 16/25/28
s 6
f 27/26/29 25/28/30 23/27/31
f 24/29/32 26/30/33 23/27/31
f 26/30/33 27/26/29 23/27/31
s off
f 28/31/34 29/32/35 30/33/36
s 8
f 31/34/37 32/35/38 29/36/39 28/31/40
f 32/37/38 33/38/41 30/33/42 29/39/39
f 33/38/41 31/34/37 28/31/40 30/33/42
s 9
f 62/40/43 61/41/44 59/42/45 60/43/46
f 62/40/43 64/44/47 63/45/48 61/41/44
s 10
f 66/46/49 67/47/50 60/48/51 59/49/52
s 11
f 68/50/53 69/51/54 67/52/55 66/53/56
s 9
f 72/54/57 71/55/58 61/41/44 63/45/48
f 71/55/58 73/56/59 59/42/45 61/41/44
s 11
f 66/53/56 65/57/60 70/58/61 68/50/53
s 12
f 65/57/62 75/59/63 74/60/64 70/58/65
s 13
f 73/61/66 76/62/67 75/63/68 65/64/69
s 14
f 71/55/70 77/65/71 76/66/72 73/56/73
f 72/54/74 78/67/75 77/65/71 71/55/70
s 12
f 79/68/76 80/69/77 74/60/64 75/59/63
s 13
f 81/70/78 79/71/79 75/63/68 76/62/67
s 14
f 76/66/72 77/65/71 82/72/80 81/73/81
f 83/74/82 82/72/80 77/65/71 78/67/75
s 9
f 36/75/83 41/76/84 62/40/43 60/43/46
f 34/77/85 64/44/47 62/40/43 41/76/84
s 14
f 40/78/86 82/72/80 83/74/82 35/79/87
f 81/73/81 82/72/80 40/78/86 37/80/88
s 13
f 44/81/89 79/71/79 81/70/78 37/82/90
s 12
f 45/83/91 80/69/77 79/68/76 44/84/92
s 11
f 39/85/93 67/52/55 69/51/54 47/86/94
s 10
f 36/87/95 60/48/51 67/47/50 39/88/96
s 9
f 36/75/83 38/89/97 42/90/98 41/76/84
f 41/76/84 42/90/98 43/91/99 34/77/85
s off
f 46/92/100 51/93/101 50/94/102 55/95/103
f 48/96/104 38/97/105 36/87/106 39/88/107
f 49/98/108 48/99/109 39/85/110 47/86/111
s 14
f 53/100/112 52/101/113 57/102/114 58/103/115
f 52/101/113 54/104/116 56/105/117 57/102/114
s off
f 48/99/118 49/98/119 51/93/120 46/92/121
f 54/106/122 38/97/123 48/96/124 46/107/125
s 9
f 52/101/126 42/90/98 38/89/97 54/104/127
f 53/100/128 43/91/99 42/90/98 52/101/126
s off
f 44/84/129 55/95/130 50/94/131 45/83/132
f 37/82/133 56/108/134 55/109/135 44/81/136
s 14
f 57/102/114 56/105/117 37/80/88 40/78/86
f 35/79/87 58/103/115 57/102/114 40/78/86
s off
f 45/110/137 50/111/138 51/112/139 49/113/140 47/114/141 69/115/142 68/116/143 70/117/144 74/118/145 80/119/146
f 54/106/147 46/107/148 55/109/149 56/108/150
s 10
f 73/61/151 65/64/152 66/46/49 59/49/52
s off
f 99/120/153 100/121/154 101/122/155
s 25
f 87/123/156 88/124/157 85/125/158 84/126/159
f 88/127/157 89/128/160 86/129/161 85/130/158
f 89/128/160 87/123/156 84/126/159 86/129/161
s 26
f 84/126/162 85/125/163 91/131/164 90/132/165
f 85/130/163 86/129/166 92/133/167 91/134/164
f 86/129/166 84/126/162 90/132/165 92/133/167
s 27
f 90/132/168 91/131/169 94/135/170 93/136/171
f 91/134/169 92/133/172 95/137/173 94/138/170
f 92/133/172 90/132/168 93/136/171 95/137/173
s 28
f 93/136/174 94/135/175 97/139/176 96/140/177
f 94/138/175 95/137/178 98/141/179 97/142/176
f 95/137/178 93/136/174 96/140/177 98/141/179
s off
f 96/140/180 97/139/181 100/143/182 99/120/183
f 97/142/184 98/141/185 101/122/186 100/144/187
f 98/141/188 96/140/189 99/120/190 101/122/191
f 102/145/192 104/147/193 103/146/194
s 33
f 105/148/195 102/151/196 103/150/197 106/149/198
f 106/149/198 103/150/197 104/147/199 107/152/200
f 107/152/200 104/147/199 102/145/196 105/153/195
s 34
f 115/154/201 114/155/202 129/156/203 128/157/204 112/158/205 113/159/206 130/160/207 131/161/208
s off
f 109/162/209 108/163/210 114/164/211 115/165/212
s 36
f 127/166/213 130/167/214 113/168/215 117/169/216 111/170/217
s 37
f 128/171/218 125/172/219 110/173/220 116/174/221 112/175/222
s 36
f 117/169/216 113/168/215 169/176/223 122/177/224 120/178/225 119/179/226 172/180/227
s off
f 123/181/228 121/182/229 200/183/230 203/184/231 199/185/232
s 37
f 112/175/222 116/174/221 171/186/233 118/187/234 121/188/235 123/189/236 170/190/237
s 34
f 169/191/238 170/192/239 123/181/240 199/185/241 122/193/242
s 36
f 184/194/243 180/195/244 127/166/213 111/170/217
s 39
f 134/196/245 139/197/246 111/198/247 117/199/248
f 172/200/249 173/201/250 134/196/245 117/199/248
s off
f 137/202/251 120/203/252 201/204/253 200/205/254 121/206/255 136/207/256
s 37
f 129/208/257 124/209/258 125/172/219 128/171/218
f 114/164/259 108/163/260 124/209/258 129/208/257
s 36
f 126/210/261 131/211/262 130/167/214 127/166/213
f 109/162/263 115/165/264 131/211/262 126/210/261
f 127/166/213 180/195/244 182/212/265 126/210/261
f 126/210/261 182/212/265 178/213/266 109/162/263
s off
f 118/214/267 133/215/268 136/207/269 121/206/270
s 42
f 116/216/271 132/217/272 174/218/273 171/219/274
s off
f 176/220/275 196/221/276 156/222/277 157/223/278
f 145/224/279 141/225/280 139/226/281 134/227/282
f 144/228/283 147/229/284 133/230/285 174/231/286
f 142/232/287 143/233/288 137/234/289 136/235/290
f 145/236/291 146/237/292 147/238/293 144/239/294
f 146/240/295 135/241/296 137/242/297 143/243/298
f 146/237/299 143/244/300 142/245/301 147/238/302
f 186/246/303 184/247/304 111/198/305 139/197/306
s 42
f 110/248/307 138/249/308 132/217/272 116/216/271
s off
f 196/250/309 194/251/310 155/252/311 156/253/312
s 37
f 194/254/313 190/255/314 153/256/315 155/257/316
f 190/255/314 192/258/317 154/259/318 153/256/315
f 192/258/317 188/260/319 152/261/320 154/259/318
s off
f 198/262/321 186/263/322 139/226/323 141/225/324
s 53
f 158/264/325 156/265/326 155/257/327 166/266/328 168/267/329
s off
f 158/264/330 168/267/331 167/268/332
s 55
f 159/269/333 160/270/334 161/271/335 162/272/336
f 161/271/335 160/270/334 163/273/337 164/274/338
f 164/274/338 163/273/337 165/275/339 166/266/340
f 166/266/340 165/275/339 167/268/341 168/267/342
s 56
f 148/276/343 150/277/344 160/270/345 159/269/346
s 53
f 154/259/347 152/261/348 162/272/349 161/271/350
s 57
f 159/269/351 162/272/352 152/261/353 148/276/354
s 56
f 150/277/344 149/278/355 163/273/356 160/270/345
s 53
f 153/256/357 154/259/347 161/271/350 164/274/358
s 56
f 149/278/355 151/279/359 165/275/360 163/273/356
s 53
f 155/257/327 153/256/357 164/274/358 166/266/328
s 56
f 158/264/361 167/268/362 165/275/360 151/279/359 156/265/363
s 34
f 113/159/206 112/158/205 170/192/239 169/191/238
s off
f 147/229/364 142/280/365 136/281/366 133/230/367
s 39
f 135/282/368 173/201/250 172/200/249 119/283/369
s 42
f 171/219/274 174/218/273 133/215/370 118/214/371
s off
f 197/284/372 185/285/373 186/263/374 198/262/375
f 185/286/376 183/287/377 184/247/378 186/246/379
s 36
f 183/288/380 179/289/381 180/195/244 184/194/243
f 182/212/265 180/195/244 179/289/381 181/290/382
f 178/213/266 182/212/265 181/290/382 177/291/383
s off
f 157/223/384 156/222/385 185/285/386 197/284/387
f 156/253/388 151/292/389 183/287/390 185/286/391
s 36
f 151/279/392 149/278/393 179/289/381 183/288/380
f 181/290/382 179/289/381 149/278/393 150/277/394
f 177/291/383 181/290/382 150/277/394 148/276/395
s off
f 175/293/396 195/294/397 196/221/398 176/220/399
f 195/295/400 193/296/401 194/251/402 196/250/403
s 37
f 193/297/404 189/298/405 190/255/314 194/254/313
f 189/298/405 191/299/406 192/258/317 190/255/314
f 191/299/406 187/300/407 188/260/319 192/258/317
s off
f 138/301/408 195/294/409 175/293/410 140/302/411
f 110/248/412 193/296/413 195/295/414 138/249/415
s 37
f 125/172/219 189/298/405 193/297/404 110/173/220
f 124/209/258 191/299/406 189/298/405 125/172/219
f 108/163/260 187/300/407 191/299/406 124/209/258
s off
f 199/185/416 202/303/417 201/304/418 120/305/419 122/193/420
f 202/303/421 203/184/422 200/183/423 201/304/424
f 206/306/425 204/307/426 205/308/427
s 70
f 199/309/428 203/310/429 204/311/430 206/312/431
f 203/313/429 202/314/432 205/315/433 204/316/430
f 202/317/432 199/318/428 206/319/431 205/320/433
s 57
f 152/261/353 188/260/434 187/300/435 108/163/436 109/162/437 178/213/438 177/291/439 148/276/354
s off
f 120/203/440 137/202/441 135/282/442 119/283/443
f 145/236/444 144/239/445 140/321/446 175/322/447 176/323/448 157/324/449 197/325/450 198/326/451 141/327/452
f 145/224/453 173/328/454 135/241/455 146/240/456
f 132/329/457 144/228/458 174/231/459
f 145/224/460 134/227/461 173/328/462
f 140/302/463 144/228/464 132/329/465 138/301/466
s 77
f 207/330/467 208/331/468 214/332/469 213/333/470
f 211/334/471 212/335/472 210/336/473 209/337/474
f 211/334/471 213/333/470 214/332/469 212/335/472
